\relax 
\providecommand\babel@aux[2]{}
\@nameuse{bbl@beforestart}
\citation{Toth2010SpringerBook,Toth11_LPVBehav}
\citation{Rugh00,Packard94CL,Apkarian95TACT,Scherer2009}
\citation{Toth10_SRIV,Giarre2002,Butcher08,Poolla2008,Wingerden09,Sznaier:01,Verdult02}
\citation{Isi:Nonlin,Son:MathContr}
\citation{RolandFundLemma}
\citation{Toth2010SpringerBook,Toth11_LPVBehav}
\citation{Toth2010SpringerBook,Toth11_LPVBehav}
\citation{Toth2010SpringerBook,Toth11_LPVBehav}
\citation{CoxThesis}
\citation{BelikovSCL2014}
\citation{BelikovSCL2014}
\citation{BelikovSCL2014}
\citation{LPVSSAkalman}
\citation{LPVSSAkalman}
\citation{Toth2010SpringerBook,Toth11_LPVBehav,BelikovSCL2014}
\citation{Toth2010SpringerBook}
\citation{PW91}
\citation{PW91}
\citation{Toth2010SpringerBook}
\babel@aux{english}{}
\@writefile{toc}{\contentsline {section}{\numberline {I}Introduction}{1}{}\protected@file@percent }
\citation{Toth2010SpringerBook}
\citation{PW91,Toth2010SpringerBook}
\citation{LPVSSAkalman}
\@writefile{toc}{\contentsline {section}{\numberline {II}Preliminaries}{2}{}\protected@file@percent }
\newlabel{sec:pre}{{II}{2}}
\newlabel{equ:alpvss}{{1}{2}}
\newlabel{rem:iobehav}{{1}{2}}
\citation{LPVSSAkalman}
\citation{LPVSSAkalman}
\citation{LPVSSAkalman}
\citation{LPVSSAkalman}
\citation{Toth2010SpringerBook,Toth11_LPVBehav}
\citation{LPVSSAkalman}
\citation{PW91}
\citation{MertLPVCDC2015,LPVSSAkalman}
\citation{LPVSSAkalman}
\citation{LPVSSAkalman}
\citation{MertLPVCDC2015}
\citation{LPVSSAkalman}
\newlabel{def:reachobs}{{6}{3}}
\newlabel{isomorphism}{{7}{3}}
\@writefile{toc}{\contentsline {section}{\numberline {III}Main results}{3}{}\protected@file@percent }
\newlabel{para:main}{{III}{3}}
\@writefile{toc}{\contentsline {subsection}{\numberline {III-A}Input-output functions vs. behaviors}{3}{}\protected@file@percent }
\newlabel{sec:iofunbehav}{{III-A}{3}}
\newlabel{col:behavior}{{1}{3}}
\@writefile{toc}{\contentsline {subsection}{\numberline {III-B}Minimality}{3}{}\protected@file@percent }
\newlabel{sect:minim}{{III-B}{3}}
\newlabel{the:behavior_min1}{{2}{3}}
\newlabel{LSSobs}{{1}{3}}
\newlabel{LSSobs:rem}{{1}{3}}
\citation{PW91}
\citation{LPVSSAkalman}
\citation{Toth2010SpringerBook}
\citation{Toth2010SpringerBook}
\citation{Toth2010SpringerBook}
\citation{CoxThesis}
\citation{CoxThesis}
\citation{Toth2010SpringerBook,Toth11_LPVBehav}
\citation{Toth2010SpringerBook,Toth11_LPVBehav}
\citation{Toth2010SpringerBook,Toth11_LPVBehav}
\citation{Toth2010SpringerBook}
\newlabel{the:behavior_min2}{{3}{4}}
\@writefile{toc}{\contentsline {subsection}{\numberline {III-C}Relationship with the prior results}{4}{}\protected@file@percent }
\newlabel{min:compare}{{4}{4}}
\citation{Toth2010SpringerBook,Toth11_LPVBehav}
\citation{Toth2010SpringerBook,Toth11_LPVBehav}
\citation{Toth2010SpringerBook,Toth11_LPVBehav}
\citation{WangIO,SussmannUnivObs}
\citation{WangIO,SussmannUnivObs}
\citation{SussmannUnivObs}
\citation{SussmannUnivObs}
\citation{WebsterBook}
\citation{WangIO}
\citation{WangIO}
\@writefile{toc}{\contentsline {section}{\numberline {IV}Proofs of the result}{5}{}\protected@file@percent }
\newlabel{sect:proof_main}{{IV}{5}}
\@writefile{toc}{\contentsline {subsection}{\numberline {IV-A}Auxiliary results: observability revealing scheduling}{5}{}\protected@file@percent }
\newlabel{min:compare:col1}{{5}{5}}
\newlabel{eq:bilin:aux}{{4}{5}}
\newlabel{ex:formula}{{2}{6}}
\newlabel{ex:formula2}{{3}{6}}
\newlabel{univ:input}{{2}{6}}
\@writefile{toc}{\contentsline {subsection}{\numberline {IV-B}Behaviors vs. i/o functions: proof of Theorem \ref  {col:behavior}}{6}{}\protected@file@percent }
\citation{LPVSSAkalman}
\citation{LPVSSAkalman}
\citation{PetCocv11}
\citation{PetCocv11}
\citation{Pet12}
\citation{LPVSSAkalman}
\citation{PetCocv11}
\citation{PetCocv11}
\citation{PetCocv11,Pet12}
\citation{LPVSSAkalman}
\citation{Callier91}
\citation{LPVSSAkalman}
\citation{LPVSSAkalman}
\citation{Callier91}
\citation{Toth2010SpringerBook}
\citation{Toth2010SpringerBook}
\@writefile{toc}{\contentsline {subsection}{\numberline {IV-C}Minimality results: proof of Theorem \ref  {the:behavior_min1}--\ref  {the:behavior_min2}}{7}{}\protected@file@percent }
\newlabel{min:compare:col11}{{3}{7}}
\newlabel{min:compare:col2}{{4}{7}}
\@writefile{toc}{\contentsline {subsection}{\numberline {IV-D}Relationship with prior work: proof of Theorem \ref  {min:compare}}{7}{}\protected@file@percent }
\bibstyle{plain}
\bibcite{Apkarian95TACT}{1}
\bibcite{Giarre2002}{2}
\bibcite{MertLPVCDC2015}{3}
\bibcite{BelikovSCL2014}{4}
\bibcite{Butcher08}{5}
\bibcite{Callier91}{6}
\bibcite{CoxThesis}{7}
\bibcite{Poolla2008}{8}
\bibcite{Isi:Nonlin}{9}
\bibcite{Toth10_SRIV}{10}
\bibcite{Packard94CL}{11}
\bibcite{PetCocv11}{12}
\bibcite{Pet12}{13}
\bibcite{LPVSSAkalman}{14}
\bibcite{PW91}{15}
\bibcite{Rugh00}{16}
\bibcite{Scherer2009}{17}
\bibcite{Son:MathContr}{18}
\bibcite{SussmannUnivObs}{19}
\bibcite{Sznaier:01}{20}
\bibcite{Toth2010SpringerBook}{21}
\bibcite{Toth11_LPVBehav}{22}
\bibcite{Wingerden09}{23}
\bibcite{Verdult02}{24}
\bibcite{RolandFundLemma}{25}
\bibcite{WangIO}{26}
\bibcite{WebsterBook}{27}
\@writefile{toc}{\contentsline {section}{\numberline {V}Conclusions}{8}{}\protected@file@percent }
\newlabel{para:concl}{{V}{8}}
\@writefile{toc}{\contentsline {section}{References}{8}{}\protected@file@percent }
\gdef \@abspage@last{8}
